<svg id="Layer_1" data-name="Layer 1" xmlns="http://www.w3.org/2000/svg" viewBox="0 0 399 59.65">
  <defs>
    <style>
      .cls-1 {
        fill: #121212;
      }

      .cls-2 {
        fill: #fff;
      }

      .cls-3 {
        fill: #666565;
      }

      .cls-4 {
        fill: #f0f0f0;
        opacity: 0.9;
      }
    </style>
  </defs>
  <g id="logo_svg">
    <rect class="cls-1" y="1.65" width="399" height="58"/>
    <g>
      <path class="cls-2" d="M33.29,8.12c-2.4.28-3.19.68-3.3,2.52,0,1.28-.11,3-.11,6.68v16H28.45l-16-20.92v10c0,3.6.11,5.4.18,6.56.08,2,1,2.64,3.72,2.88V33H7.18V31.88c2.33-.2,3.23-.8,3.38-2.76.11-1.28.18-3.08.18-6.72V12.2A3.62,3.62,0,0,0,10,9.56c-.71-1-1.5-1.24-3.34-1.44V7h5.63L28.19,27.12v-9.8c0-3.72-.07-5.44-.19-6.64-.11-1.8-1-2.36-4-2.56V7h9.26Z"/>
      <path class="cls-2" d="M48.9,6.44c6.42,0,12.16,5.24,12.16,13.2,0,8.6-5.48,14-12.38,14-7.21,0-12.46-5.84-12.46-13.36C36.22,13.08,41,6.44,48.9,6.44Zm-.75,1.48c-4.2,0-8,3.76-8,11.24S44,32.08,49.28,32.08c4.54,0,7.95-3.6,7.95-11.32C57.23,12.36,53.07,7.92,48.15,7.92Z"/>
      <path class="cls-2" d="M87,33.32c-.49,0-.9,0-1.39-.08a6.57,6.57,0,0,1-5.85-3.44c-1.39-2-2.74-4.56-3.94-6.6-.75-1.28-1.24-1.52-3.15-1.52H71.3V28c0,3.4.42,3.6,3.42,3.92V33h-10V31.88c3.11-.36,3.38-.52,3.38-3.92V12c0-3.4-.41-3.52-3.38-3.88V7h9.57c2.74,0,4.58.36,6,1.36a6.09,6.09,0,0,1,2.55,5.28c0,3.44-2.06,5.6-4.84,6.88.68,1.24,2.29,3.92,3.42,5.72a37.25,37.25,0,0,0,3,4.12A5.4,5.4,0,0,0,87.1,32.2Zm-13.84-13c2,0,3.18-.32,4.12-1.16a5.76,5.76,0,0,0,2.07-4.92c0-4.28-2.67-5.84-5.56-5.84a3.3,3.3,0,0,0-2,.4c-.33.28-.45.68-.45,1.72v9.8Z"/>
      <path class="cls-2" d="M98.85,7c5.29,0,8.63,1.12,11,3.48A12,12,0,0,1,113,19c0,4.68-1.8,8.48-4.69,10.8S101.81,33,97.19,33H88.41V31.88c3.23-.32,3.38-.6,3.38-3.88V12c0-3.44-.45-3.6-3.38-3.92V7ZM95.06,27.68c0,3,1.2,3.84,4,3.84,6.75,0,10.21-4.92,10.21-11.92,0-4.36-1.39-7.68-4.36-9.6a11.26,11.26,0,0,0-6.41-1.6c-1.69,0-2.59.24-3,.56s-.48.68-.48,2.24Z"/>
      <path class="cls-2" d="M116.63,33V31.88c3.08-.36,3.38-.52,3.38-3.92V12.08c0-3.44-.3-3.6-3.38-4V7h10.06V8.12c-3.12.36-3.42.52-3.42,4V28c0,3.44.3,3.56,3.42,3.92V33Z"/>
      <path class="cls-2" d="M152.73,26.6a52.37,52.37,0,0,1-2.07,6,32.17,32.17,0,0,1-6.86,1c-9,0-13.55-6.36-13.55-13.36,0-8.16,5.82-13.8,14.22-13.8a35.91,35.91,0,0,1,7.09.92c.15,1.8.42,4.2.72,6.2l-1.17.28c-.75-2.68-1.65-4.32-3.56-5.16a9.74,9.74,0,0,0-3.94-.76c-6.19,0-9.46,4.88-9.46,11.48,0,7.72,3.76,12.68,9.83,12.68,3.83,0,5.71-1.88,7.62-5.88Z"/>
    </g>
    <g>
      <path class="cls-3" d="M173.86,19.44c3.84.63,7,2.47,7,6.35A6.91,6.91,0,0,1,176.94,32,13.22,13.22,0,0,1,170,33.51h-9.84V32.39c3.4-.32,3.6-.68,3.6-3.84v-16c0-3.32-.36-3.6-3.6-3.88V7.52h10.48c3,0,4.88.52,6.16,1.4a5.22,5.22,0,0,1,2.36,4.48C179.18,17.16,176.1,18.88,173.86,19.44Zm-4.6-.48c4.4,0,6.2-1.76,6.2-5,0-2.8-1.72-5-5.56-5a4.17,4.17,0,0,0-2.24.4c-.32.24-.44.68-.44,2V19Zm-2,9.51c0,2.88.68,3.6,3.52,3.6,3.12,0,6.16-1.68,6.16-5.88s-2.88-5.84-7.76-5.84h-1.92Z"/>
      <path class="cls-3" d="M199,33.51V32.39c2.6-.32,2.92-.72,2.36-2.24s-1.32-3.56-2.16-6.08h-8.64c-.64,1.8-1.24,3.36-1.8,5-.88,2.6-.32,2.92,3,3.32v1.12H182.5V32.39c2.52-.32,3.16-.6,4.56-4.2l8.28-21L196.62,7c2.52,6.84,5.28,14.39,7.8,21.31,1.28,3.48,1.64,3.8,4.48,4.12v1.12ZM195,12.2c-1.28,3.44-2.64,7.07-3.84,10.23h7.48Z"/>
      <path class="cls-3" d="M234.21,33.83c-.52,0-1,0-1.47-.08a7.1,7.1,0,0,1-6.24-3.44c-1.48-2-2.92-4.56-4.2-6.6-.8-1.28-1.32-1.52-3.36-1.52h-1.4v6.28c0,3.4.44,3.6,3.64,3.92v1.12H210.5V32.39c3.32-.36,3.6-.52,3.6-3.92V12.52c0-3.4-.44-3.52-3.6-3.88V7.52h10.2c2.92,0,4.88.36,6.4,1.36a6,6,0,0,1,2.72,5.28c0,3.44-2.2,5.59-5.16,6.87.72,1.24,2.44,3.92,3.64,5.72a36.73,36.73,0,0,0,3.16,4.12,5.76,5.76,0,0,0,2.92,1.84Zm-14.75-13c2.08,0,3.4-.32,4.4-1.16a5.59,5.59,0,0,0,2.2-4.91c0-4.28-2.84-5.84-5.92-5.84a3.66,3.66,0,0,0-2.12.4c-.36.28-.48.68-.48,1.72v9.79Z"/>
      <path class="cls-3" d="M235.78,33.51V32.39c3.28-.36,3.6-.52,3.6-3.92V12.6c0-3.44-.32-3.6-3.6-4V7.52H246.5V8.64c-3.32.36-3.64.52-3.64,4V28.47c0,3.44.32,3.56,3.64,3.92v1.12Z"/>
      <path class="cls-3" d="M263.7,13.6c-.68-2.64-1.8-5.24-5.56-5.24-3.12,0-4.2,2.28-4.2,4.36,0,2.76,1.76,4.16,5.08,5.88,4.8,2.47,6.88,4.31,6.88,8.11,0,4.2-3.64,7.4-8.8,7.4A16.69,16.69,0,0,1,251,32.79a54.58,54.58,0,0,1-1.08-6l1.24-.32c.8,2.68,2.56,6.16,6.72,6.16A4.4,4.4,0,0,0,262.5,28c0-3.08-1.64-4.32-5.16-6.24-4.2-2.27-6.56-4.19-6.56-7.91,0-3.56,3-6.92,8.24-6.92a25.61,25.61,0,0,1,5.28.76c.16,1.44.32,3,.64,5.64Z"/>
      <path class="cls-3" d="M290.33,13.8a15.17,15.17,0,0,0-1.28-3.32c-.64-1.08-1-1.36-3.24-1.36h-4V28.59c0,3.12.32,3.56,4.12,3.8v1.12H274.3V32.39c3.72-.24,4-.64,4-3.8V9.12H274.7c-2.2,0-2.84.24-3.52,1.44a18.27,18.27,0,0,0-1.32,3.24h-1.2c.24-2.44.48-5,.6-7.2h.92c.6,1,1,.92,2.16.92h15.83a2,2,0,0,0,2-.92h1c0,1.88.16,4.76.36,7.08Z"/>
      <path class="cls-3" d="M306.1,33.51V32.39c2.6-.32,2.92-.72,2.36-2.24s-1.32-3.56-2.16-6.08h-8.64c-.64,1.8-1.24,3.36-1.8,5-.88,2.6-.32,2.92,3,3.32v1.12h-9.24V32.39c2.52-.32,3.16-.6,4.56-4.2l8.28-21L303.7,7c2.52,6.84,5.28,14.39,7.8,21.31,1.27,3.48,1.63,3.8,4.47,4.12v1.12Zm-4-21.31c-1.28,3.44-2.64,7.07-3.84,10.23h7.48Z"/>
      <path class="cls-3" d="M341.33,27.11a50.74,50.74,0,0,1-2.2,6,36.45,36.45,0,0,1-7.32,1c-9.55,0-14.43-6.36-14.43-13.36,0-8.15,6.2-13.79,15.15-13.79a40.83,40.83,0,0,1,7.56.92c.16,1.8.44,4.2.76,6.2l-1.24.28c-.8-2.68-1.76-4.32-3.8-5.16a10.94,10.94,0,0,0-4.2-.76c-6.59,0-10.07,4.88-10.07,11.48,0,7.71,4,12.67,10.47,12.67,4.08,0,6.08-1.88,8.12-5.88Z"/>
      <path class="cls-3" d="M372.33,8.64c-2.52.16-3.44.8-3.52,2.64,0,.92-.12,2.6-.12,6.28v4.31c0,4.08-.48,7.2-2.8,9.64-1.88,2-4.6,2.56-7.36,2.56A10.81,10.81,0,0,1,352,32.23c-2.4-1.84-3.56-4.6-3.56-9.28V12.76c0-3.6-.32-3.84-3.52-4.12V7.52h10.51V8.64c-3.19.2-3.51.52-3.51,4.12v10c0,5.84,2.75,9,7.55,9,5.68,0,7.48-3.52,7.48-10.16V17.56c0-3.68-.12-5.2-.2-6.28-.12-1.8-1-2.48-4-2.64V7.52h9.6Z"/>
      <path class="cls-3" d="M384.9,7.52c2.83,0,5.11.52,6.75,1.72a6.76,6.76,0,0,1,2.64,5.68c0,5.83-5,8.19-8.8,8.19a6.78,6.78,0,0,1-1.07-.08l-2.76-.72v6.24c0,3.36.28,3.44,3.95,3.84v1.12h-11V32.39c3.44-.36,3.6-.6,3.6-3.92V12.6c0-3.56-.44-3.64-3.6-4V7.52Zm-3.24,13.4a7.47,7.47,0,0,0,2.91.51c2.68,0,6-1.36,6-6.39,0-4.4-2.88-6.16-6.24-6.16a3.55,3.55,0,0,0-2.23.48c-.32.28-.44.76-.44,1.84Z"/>
    </g>
    <g>
      <path class="cls-4" d="M10.76,43a2.09,2.09,0,0,1,.8-.18,3.69,3.69,0,0,1,3.54,3.82,4.57,4.57,0,0,1-4.44,4.51,6.79,6.79,0,0,1-2.78-.64V40.41c0-1.12,0-1.23-1.2-1.32v-.47A13.91,13.91,0,0,0,9.31,38v5.64ZM9.31,48.87a1.42,1.42,0,0,0,.09.63,2,2,0,0,0,1.78,1c1.55,0,2.32-1.33,2.32-3.36s-1.24-3.26-2.74-3.26a3.44,3.44,0,0,0-1.45.34Z"/>
      <path class="cls-4" d="M25.06,49.43a4.11,4.11,0,0,1-3,1.74,3.59,3.59,0,0,1-3.53-3.87,4.62,4.62,0,0,1,1.17-3.15,3.72,3.72,0,0,1,2.68-1.31,2.81,2.81,0,0,1,2.76,2.79c0,.36-.08.52-.36.59s-2.67.24-4.81.31c-.05,2.41,1.42,3.4,2.7,3.4A3,3,0,0,0,24.77,49ZM22,43.52c-.83,0-1.64.78-1.89,2.23,1,0,2,0,3.08,0,.32,0,.43-.09.43-.36A1.68,1.68,0,0,0,22,43.52Z"/>
      <path class="cls-4" d="M37.94,50.94a1.79,1.79,0,0,1-.77.23c-1.15,0-1.77-.7-1.77-2.14V43.79H34.16l-.07-.21.49-.53h.82V41.54c.35-.36.87-.83,1.21-1.19l.27,0c0,.76-.05,1.8-.05,2.66h2.05a.56.56,0,0,1-.11.74H36.83V48.4c0,1.46.57,1.73,1,1.73a2.52,2.52,0,0,0,1.1-.29l.16.47Z"/>
      <path class="cls-4" d="M45.67,42.84a3.87,3.87,0,0,1,3.92,4,4,4,0,0,1-3.92,4.3,4,4,0,0,1-4-4A4.12,4.12,0,0,1,45.67,42.84Zm-.22.61c-1.1,0-2.09,1.06-2.09,3.15,0,2.29,1,3.94,2.49,3.94,1.11,0,2-.81,2-3.27C47.9,45.16,47,43.45,45.45,43.45Z"/>
      <path class="cls-4" d="M55.4,48.33a1.3,1.3,0,0,0-.59.9c0,.32.3.68,1.12.68h2c1.15,0,2.63.37,2.63,2.16S58.36,55.69,56,55.69c-2,0-3.13-1.18-3.17-2.25a1.41,1.41,0,0,1,.45-1,15.29,15.29,0,0,1,1.48-1.3,2.32,2.32,0,0,1-1.35-1,1.69,1.69,0,0,1-.22-.78,3.74,3.74,0,0,0,1.66-1.24Zm.87.18a2.79,2.79,0,0,1-3.06-2.72,3.1,3.1,0,0,1,3.24-3,3.81,3.81,0,0,1,1.73.45A11.91,11.91,0,0,0,60.59,43l.11.17a2.29,2.29,0,0,1-.67.95c-.27,0-.86-.07-1.12-.09a2.75,2.75,0,0,1,.53,1.64A2.92,2.92,0,0,1,56.27,48.51Zm.41,2.66a2.27,2.27,0,0,0-1.6.38A2.09,2.09,0,0,0,54.21,53c0,1,1,1.73,2.42,1.73,1.71,0,2.68-.88,2.68-2a1.35,1.35,0,0,0-.79-1.31A4.8,4.8,0,0,0,56.68,51.17Zm-.41-7.81c-.81,0-1.53.74-1.53,2.16s.72,2.41,1.71,2.41c.79,0,1.49-.7,1.49-2.16S57.28,43.36,56.27,43.36Z"/>
      <path class="cls-4" d="M69.75,49.43a4.08,4.08,0,0,1-3,1.74,3.59,3.59,0,0,1-3.53-3.87,4.62,4.62,0,0,1,1.17-3.15,3.73,3.73,0,0,1,2.69-1.31,2.81,2.81,0,0,1,2.75,2.79c0,.36-.07.52-.36.59s-2.67.24-4.81.31c0,2.41,1.42,3.4,2.7,3.4A3,3,0,0,0,69.46,49Zm-3.1-5.91c-.83,0-1.64.78-1.89,2.23,1,0,2,0,3.08,0,.33,0,.43-.09.43-.36A1.68,1.68,0,0,0,66.65,43.52Z"/>
      <path class="cls-4" d="M76.55,50.94a1.79,1.79,0,0,1-.77.23c-1.15,0-1.77-.7-1.77-2.14V43.79H72.77l-.07-.21.49-.53H74V41.54c.35-.36.87-.83,1.21-1.19l.27,0c0,.76,0,1.8,0,2.66h2a.56.56,0,0,1-.11.74H75.44V48.4c0,1.46.57,1.73,1,1.73a2.52,2.52,0,0,0,1.1-.29l.16.47Z"/>
      <path class="cls-4" d="M85.44,51v-.51c1-.1,1.19-.19,1.19-1.38v-3c0-1.5-.57-2.26-1.78-2.24a2.57,2.57,0,0,0-1.91.94v4.25c0,1.17.15,1.28,1.23,1.38V51H80.24v-.51c1.05-.09,1.28-.18,1.28-1.38V40.39c0-1,0-1.19-1.26-1.3v-.47A11.3,11.3,0,0,0,82.94,38v6.14a4.06,4.06,0,0,1,2.61-1.31c1.48,0,2.51.92,2.51,3.08v3.17c0,1.18.14,1.27,1.18,1.36V51Z"/>
      <path class="cls-4" d="M98.8,49.43a4.08,4.08,0,0,1-3,1.74,3.6,3.6,0,0,1-3.53-3.87,4.66,4.66,0,0,1,1.17-3.15,3.73,3.73,0,0,1,2.69-1.31,2.81,2.81,0,0,1,2.75,2.79c0,.36-.07.52-.36.59s-2.66.24-4.81.31c0,2.41,1.43,3.4,2.71,3.4A3,3,0,0,0,98.51,49Zm-3.1-5.91c-.82,0-1.63.78-1.89,2.23,1,0,2,0,3.08,0,.33,0,.44-.09.44-.36A1.69,1.69,0,0,0,95.7,43.52Z"/>
      <path class="cls-4" d="M106.11,51H102v-.51c1.13-.1,1.24-.19,1.24-1.36V45.34c0-1.19-.07-1.24-1.12-1.37v-.45a9.59,9.59,0,0,0,2.54-.74v2c.63-.93,1.39-1.92,2.29-1.92a.92.92,0,0,1,1,.86,1.18,1.18,0,0,1-.61,1,.36.36,0,0,1-.47,0,1.13,1.13,0,0,0-.81-.45c-.38,0-1,.55-1.44,1.47v3.39c0,1.19.09,1.28,1.48,1.38Z"/>
      <path class="cls-4" d="M141.21,51.17a1.32,1.32,0,0,1-.85-.34,1.68,1.68,0,0,1-.43-.81,5.58,5.58,0,0,1-2.16,1.15,2.21,2.21,0,0,1-2.2-2.21,1.84,1.84,0,0,1,1.48-1.8A14.27,14.27,0,0,0,139.89,46v-.36c0-1.28-.64-2-1.58-2a1.05,1.05,0,0,0-.85.42A3.92,3.92,0,0,0,137,45.2a.5.5,0,0,1-.52.41.87.87,0,0,1-.8-.79c0-.25.24-.47.6-.72a7.35,7.35,0,0,1,2.59-1.26,2.36,2.36,0,0,1,2.43,2.57v3.48c0,.83.31,1.08.63,1.08a1.41,1.41,0,0,0,.65-.2l.18.5Zm-1.32-4.55c-.39.2-1.26.58-1.67.76-.68.3-1.1.64-1.1,1.31a1.32,1.32,0,0,0,1.3,1.39,2.37,2.37,0,0,0,1.47-.65Z"/>
      <path class="cls-4" d="M152.21,49.34a4.31,4.31,0,0,1-3.08,1.83,3.63,3.63,0,0,1-3.64-3.78,4.27,4.27,0,0,1,1.82-3.53,4.79,4.79,0,0,1,2.74-1,2.69,2.69,0,0,1,1.67.48.59.59,0,0,1,.29.53.91.91,0,0,1-.65.81c-.09,0-.16,0-.34-.18a2.66,2.66,0,0,0-1.82-.76c-1.19,0-2.23,1-2.23,2.88,0,2.5,1.69,3.33,2.73,3.33a2.9,2.9,0,0,0,2.2-1Z"/>
      <path class="cls-4" d="M158.87,50.94a1.87,1.87,0,0,1-.78.23c-1.15,0-1.76-.7-1.76-2.14V43.79h-1.25l-.07-.21.49-.53h.83V41.54c.34-.36.86-.83,1.2-1.19l.27,0c0,.76-.05,1.8-.05,2.66h2.05a.56.56,0,0,1-.11.74h-1.94V48.4c0,1.46.58,1.73,1,1.73a2.49,2.49,0,0,0,1.1-.29l.16.47Z"/>
      <path class="cls-4" d="M172.53,50.94a1.87,1.87,0,0,1-.78.23c-1.15,0-1.76-.7-1.76-2.14V43.79h-1.24l-.08-.21.49-.53H170V41.54c.34-.36.86-.83,1.2-1.19l.27,0c0,.76-.05,1.8-.05,2.66h2.05a.56.56,0,0,1-.11.74h-1.94V48.4c0,1.46.58,1.73,1,1.73a2.49,2.49,0,0,0,1.1-.29l.16.47Z"/>
      <path class="cls-4" d="M180.25,42.84a3.87,3.87,0,0,1,3.92,4,4,4,0,0,1-3.92,4.3,4,4,0,0,1-4-4A4.12,4.12,0,0,1,180.25,42.84Zm-.22.61c-1.1,0-2.09,1.06-2.09,3.15,0,2.29,1,3.94,2.49,3.94,1.12,0,2-.81,2-3.27C182.48,45.16,181.62,43.45,180,43.45Z"/>
      <path class="cls-4" d="M190,48.33a1.29,1.29,0,0,0-.6.9c0,.32.31.68,1.12.68h2c1.16,0,2.63.37,2.63,2.16s-2.21,3.63-4.61,3.63c-2,0-3.13-1.18-3.16-2.25a1.41,1.41,0,0,1,.45-1,16.46,16.46,0,0,1,1.47-1.3,2.35,2.35,0,0,1-1.35-1,1.66,1.66,0,0,1-.21-.78,3.76,3.76,0,0,0,1.65-1.24Zm.86.18a2.8,2.8,0,0,1-3.06-2.72,3.11,3.11,0,0,1,3.24-3,3.81,3.81,0,0,1,1.73.45,11.73,11.73,0,0,0,2.41-.27l.11.17a2.29,2.29,0,0,1-.67.95c-.27,0-.86-.07-1.11-.09a2.81,2.81,0,0,1,.52,1.64A2.92,2.92,0,0,1,190.85,48.51Zm.41,2.66a2.29,2.29,0,0,0-1.6.38A2.1,2.1,0,0,0,188.8,53c0,1,1,1.73,2.41,1.73,1.71,0,2.68-.88,2.68-2a1.35,1.35,0,0,0-.79-1.31A4.8,4.8,0,0,0,191.26,51.17Zm-.41-7.81c-.81,0-1.53.74-1.53,2.16s.72,2.41,1.71,2.41c.79,0,1.49-.7,1.49-2.16S191.86,43.36,190.85,43.36Z"/>
      <path class="cls-4" d="M204.33,49.43a4.08,4.08,0,0,1-3,1.74,3.59,3.59,0,0,1-3.52-3.87A4.62,4.62,0,0,1,199,44.15a3.69,3.69,0,0,1,2.68-1.31,2.8,2.8,0,0,1,2.75,2.79c0,.36-.07.52-.36.59s-2.66.24-4.8.31c-.06,2.41,1.42,3.4,2.7,3.4a3,3,0,0,0,2.09-.92Zm-3.09-5.91c-.83,0-1.64.78-1.89,2.23,1,0,2,0,3.07,0,.33,0,.44-.09.44-.36A1.68,1.68,0,0,0,201.24,43.52Z"/>
      <path class="cls-4" d="M211.14,50.94a1.87,1.87,0,0,1-.78.23c-1.15,0-1.76-.7-1.76-2.14V43.79h-1.24l-.08-.21.49-.53h.83V41.54c.34-.36.86-.83,1.2-1.19l.27,0c0,.76,0,1.8,0,2.66h2a.56.56,0,0,1-.11.74H210V48.4c0,1.46.58,1.73,1,1.73a2.49,2.49,0,0,0,1.1-.29l.16.47Z"/>
      <path class="cls-4" d="M220,51v-.51c1-.1,1.19-.19,1.19-1.38v-3c0-1.5-.58-2.26-1.79-2.24a2.54,2.54,0,0,0-1.9.94v4.25c0,1.17.14,1.28,1.22,1.38V51h-3.92v-.51c1-.09,1.27-.18,1.27-1.38V40.39c0-1,0-1.19-1.26-1.3v-.47a11.27,11.27,0,0,0,2.69-.61v6.14a4,4,0,0,1,2.61-1.31c1.47,0,2.5.92,2.5,3.08v3.17c0,1.18.14,1.27,1.19,1.36V51Z"/>
      <path class="cls-4" d="M233.38,49.43a4.08,4.08,0,0,1-3,1.74,3.59,3.59,0,0,1-3.53-3.87A4.62,4.62,0,0,1,228,44.15a3.69,3.69,0,0,1,2.68-1.31,2.8,2.8,0,0,1,2.75,2.79c0,.36-.07.52-.36.59s-2.66.24-4.8.31c-.06,2.41,1.42,3.4,2.7,3.4A3,3,0,0,0,233.1,49Zm-3.09-5.91c-.83,0-1.64.78-1.89,2.23,1,0,2,0,3.08,0,.32,0,.43-.09.43-.36A1.68,1.68,0,0,0,230.29,43.52Z"/>
      <path class="cls-4" d="M240.69,51h-4.14v-.51c1.14-.1,1.24-.19,1.24-1.36V45.34c0-1.19-.07-1.24-1.11-1.37v-.45a9.81,9.81,0,0,0,2.54-.74v2c.63-.93,1.38-1.92,2.28-1.92a.93.93,0,0,1,1.05.86,1.19,1.19,0,0,1-.62,1,.35.35,0,0,1-.46,0,1.14,1.14,0,0,0-.81-.45c-.38,0-1,.55-1.44,1.47v3.39c0,1.19.09,1.28,1.47,1.38Z"/>
      <path class="cls-4" d="M263.55,51v-.51c1.15-.1,1.3-.19,1.3-1.38V40.44c0-1.09-.09-1.2-1.25-1.35v-.47a12.05,12.05,0,0,0,2.67-.61V49.07c0,1.19.11,1.28,1.28,1.38V51Z"/>
      <path class="cls-4" d="M277,49.43a4.08,4.08,0,0,1-3,1.74,3.59,3.59,0,0,1-3.52-3.87,4.62,4.62,0,0,1,1.17-3.15,3.69,3.69,0,0,1,2.68-1.31,2.8,2.8,0,0,1,2.75,2.79c0,.36-.07.52-.36.59s-2.66.24-4.8.31c-.06,2.41,1.42,3.4,2.7,3.4a3,3,0,0,0,2.09-.92Zm-3.09-5.91c-.83,0-1.64.78-1.89,2.23,1,0,2,0,3.07,0,.33,0,.44-.09.44-.36A1.68,1.68,0,0,0,273.94,43.52Z"/>
      <path class="cls-4" d="M286.07,51.17a1.32,1.32,0,0,1-.85-.34,1.68,1.68,0,0,1-.43-.81,5.58,5.58,0,0,1-2.16,1.15,2.21,2.21,0,0,1-2.2-2.21,1.84,1.84,0,0,1,1.48-1.8A14.27,14.27,0,0,0,284.75,46v-.36c0-1.28-.64-2-1.58-2a1.05,1.05,0,0,0-.85.42,3.92,3.92,0,0,0-.48,1.17.5.5,0,0,1-.52.41.87.87,0,0,1-.8-.79c0-.25.24-.47.6-.72a7.35,7.35,0,0,1,2.59-1.26,2.36,2.36,0,0,1,2.43,2.57v3.48c0,.83.31,1.08.63,1.08a1.41,1.41,0,0,0,.65-.2l.18.5Zm-1.32-4.55c-.39.2-1.26.58-1.67.76-.68.3-1.1.64-1.1,1.31a1.32,1.32,0,0,0,1.3,1.39,2.37,2.37,0,0,0,1.47-.65Z"/>
      <path class="cls-4" d="M294.49,51h-4.14v-.51c1.14-.1,1.24-.19,1.24-1.36V45.34c0-1.19-.07-1.24-1.11-1.37v-.45a9.81,9.81,0,0,0,2.54-.74v2c.63-.93,1.38-1.92,2.28-1.92a.93.93,0,0,1,1.05.86,1.19,1.19,0,0,1-.62,1,.35.35,0,0,1-.46,0,1.14,1.14,0,0,0-.81-.45c-.38,0-1,.55-1.44,1.47v3.39c0,1.19.09,1.28,1.47,1.38Z"/>
      <path class="cls-4" d="M304.21,51v-.51c1.05-.1,1.16-.23,1.16-1.45V46c0-1.26-.45-2.1-1.64-2.1a3.16,3.16,0,0,0-2,.93v4.22c0,1.24.11,1.28,1.17,1.38V51H299v-.51c1.19-.12,1.3-.19,1.3-1.38V45.36c0-1.17-.13-1.23-1.1-1.39V43.5a9.79,9.79,0,0,0,2.52-.72v1.43c.36-.26.75-.53,1.22-.83a2.72,2.72,0,0,1,1.5-.54c1.44,0,2.34,1.06,2.34,2.81v3.42c0,1.22.11,1.28,1.15,1.38V51Z"/>
      <path class="cls-4" d="M320.72,50.94a1.87,1.87,0,0,1-.78.23c-1.15,0-1.76-.7-1.76-2.14V43.79h-1.24l-.08-.21.49-.53h.83V41.54c.34-.36.86-.83,1.21-1.19l.27,0c0,.76-.06,1.8-.06,2.66h2a.56.56,0,0,1-.1.74H319.6V48.4c0,1.46.58,1.73,1,1.73a2.48,2.48,0,0,0,1.09-.29l.17.47Z"/>
      <path class="cls-4" d="M328.44,42.84a3.87,3.87,0,0,1,3.93,4,4,4,0,0,1-3.93,4.3,4,4,0,0,1-4-4A4.12,4.12,0,0,1,328.44,42.84Zm-.22.61c-1.09,0-2.08,1.06-2.08,3.15,0,2.29,1,3.94,2.48,3.94,1.12,0,2.05-.81,2.05-3.27C330.67,45.16,329.81,43.45,328.22,43.45Z"/>
      <path class="cls-4" d="M338.18,48.33a1.33,1.33,0,0,0-.6.9c0,.32.31.68,1.12.68h2c1.15,0,2.62.37,2.62,2.16s-2.21,3.63-4.6,3.63c-2,0-3.14-1.18-3.17-2.25a1.41,1.41,0,0,1,.45-1,16.46,16.46,0,0,1,1.47-1.3,2.38,2.38,0,0,1-1.35-1,1.66,1.66,0,0,1-.21-.78,3.76,3.76,0,0,0,1.65-1.24Zm.86.18A2.8,2.8,0,0,1,336,45.79a3.11,3.11,0,0,1,3.24-3,3.78,3.78,0,0,1,1.73.45,11.73,11.73,0,0,0,2.41-.27l.11.17a2.29,2.29,0,0,1-.67.95c-.27,0-.86-.07-1.11-.09a2.81,2.81,0,0,1,.52,1.64A2.92,2.92,0,0,1,339,48.51Zm.42,2.66a2.3,2.3,0,0,0-1.61.38A2.1,2.1,0,0,0,337,53c0,1,1,1.73,2.41,1.73,1.71,0,2.68-.88,2.68-2a1.33,1.33,0,0,0-.79-1.31A4.77,4.77,0,0,0,339.46,51.17ZM339,43.36c-.81,0-1.53.74-1.53,2.16s.72,2.41,1.71,2.41c.79,0,1.5-.7,1.5-2.16S340.05,43.36,339,43.36Z"/>
      <path class="cls-4" d="M352.52,49.43a4.08,4.08,0,0,1-3,1.74A3.59,3.59,0,0,1,346,47.3a4.62,4.62,0,0,1,1.17-3.15,3.69,3.69,0,0,1,2.68-1.31,2.8,2.8,0,0,1,2.75,2.79c0,.36-.07.52-.36.59s-2.66.24-4.8.31c-.06,2.41,1.42,3.4,2.7,3.4a3,3,0,0,0,2.09-.92Zm-3.09-5.91c-.83,0-1.64.78-1.89,2.23,1,0,2,0,3.08,0,.32,0,.43-.09.43-.36A1.68,1.68,0,0,0,349.43,43.52Z"/>
      <path class="cls-4" d="M359.33,50.94a1.87,1.87,0,0,1-.78.23c-1.15,0-1.76-.7-1.76-2.14V43.79h-1.24l-.08-.21.49-.53h.83V41.54c.34-.36.86-.83,1.21-1.19l.27,0c0,.76-.06,1.8-.06,2.66h2.05a.56.56,0,0,1-.1.74h-2V48.4c0,1.46.58,1.73,1.05,1.73a2.48,2.48,0,0,0,1.09-.29l.17.47Z"/>
      <path class="cls-4" d="M368.22,51v-.51c1-.1,1.19-.19,1.19-1.38v-3c0-1.5-.58-2.26-1.78-2.24a2.54,2.54,0,0,0-1.91.94v4.25c0,1.17.14,1.28,1.22,1.38V51H363v-.51c1-.09,1.27-.18,1.27-1.38V40.39c0-1-.05-1.19-1.26-1.3v-.47a11.27,11.27,0,0,0,2.69-.61v6.14a4.06,4.06,0,0,1,2.61-1.31c1.47,0,2.5.92,2.5,3.08v3.17c0,1.18.14,1.27,1.19,1.36V51Z"/>
      <path class="cls-4" d="M381.58,49.43a4.11,4.11,0,0,1-3,1.74,3.59,3.59,0,0,1-3.53-3.87,4.62,4.62,0,0,1,1.17-3.15,3.71,3.71,0,0,1,2.68-1.31,2.81,2.81,0,0,1,2.76,2.79c0,.36-.08.52-.36.59s-2.67.24-4.81.31c-.06,2.41,1.42,3.4,2.7,3.4a3,3,0,0,0,2.09-.92Zm-3.1-5.91c-.83,0-1.64.78-1.89,2.23,1,0,2,0,3.08,0,.32,0,.43-.09.43-.36A1.68,1.68,0,0,0,378.48,43.52Z"/>
      <path class="cls-4" d="M388.88,51h-4.14v-.51c1.14-.1,1.24-.19,1.24-1.36V45.34c0-1.19-.07-1.24-1.11-1.37v-.45a9.81,9.81,0,0,0,2.54-.74v2c.63-.93,1.38-1.92,2.28-1.92a.93.93,0,0,1,1.05.86,1.21,1.21,0,0,1-.61,1,.36.36,0,0,1-.47,0,1.14,1.14,0,0,0-.81-.45c-.38,0-1.05.55-1.44,1.47v3.39c0,1.19.09,1.28,1.47,1.38Z"/>
    </g>
  </g>
</svg>
